…
# Build your search
topic1  <- c("dementia","vascular","alzheimer's")  # Combined with Boolean OR
topic2  <- c("lipids","statins","cholesterol")     # Combined with Boolean OR
myquery <- list(topic1, topic2)                    # Combined with Boolean AND

# Run your search
results <- mx_search(data = preprint_data,
                     query = myquery)

# Let's have a look at the returned records
results

## # A tibble: 73 x 14
##       ID title abstract authors date       category doi   version author_correspo~ author_correspo~
##    <dbl> <chr> <chr>    <chr>   <date>     <chr>    <chr>   <dbl> <chr>            <chr>           
##  1   184 Exce~ "Object~ De Lim~ 2019-07-25 Cardiov~ 10.1~       1 Andrei C Sposito "Laboratory of ~
##  2   281 Peri~ "Introd~ Newton~ 2019-08-14 Addicti~ 10.1~       1 Dwight F Newton  "University of ~
##  3   284 A co~ "Object~ Moriar~ 2019-08-15 Cardiov~ 10.1~       1 Mark H Ebell     "University of ~
##  4   341 Apol~ "Backgr~ Richar~ 2019-08-29 Cardiov~ 10.1~       1 Tom G Richardson "University of ~
##  5   307 Comp~ "Owing ~ Batty,~ 2019-08-17 Epidemi~ 10.1~       1 George David Ba~ "University Col~
##  6   473 Self~ "Backgr~ Grover~ 2019-09-23 Cardiov~ 10.1~       1 Abhinav Grover   "University of ~
##  7   645 Tren~ "Object~ Curtis~ 2019-10-18 Cardiov~ 10.1~       1 Ben Goldacre     "University of ~
##  8   981 Does~ "OBJECT~ Harber~ 2019-11-29 Endocri~ 10.1~       1 Lisa Harber-Asc~ "King\\'s Colle~
##  9  1089 Asse~ "Backgr~ Finner~ 2019-12-14 Cardiov~ 10.1~       1 Pradeep Nataraj~ "Massachusetts ~
## 10  1342 Idea~ "BACKGR~ Mckenz~ 2020-01-16 Epidemi~ 10.1~       1 Trevor S Fergus~ "Caribbean Inst~
## # ... with 63 more rows, and 4 more variables: link_page <chr>, link_pdf <chr>, license <chr>,
## #   published <chr>
…
