…
⊕You may need the development version of recipes for this to work, as per this issue

lambda_grid <- grid_regular(penalty(), levels = 40)

set.seed(42)
review_folds <- bootstraps(review_train, strata = bechdel)
review_folds

## # Bootstrap sampling using stratification 
## # A tibble: 25 x 2
##    splits             id         
##    <list>             <chr>      
##  1 <split [1194/440]> Bootstrap01
##  2 <split [1194/445]> Bootstrap02
##  3 <split [1194/437]> Bootstrap03
##  4 <split [1194/447]> Bootstrap04
##  5 <split [1194/443]> Bootstrap05
##  6 <split [1194/446]> Bootstrap06
##  7 <split [1194/434]> Bootstrap07
##  8 <split [1194/435]> Bootstrap08
##  9 <split [1194/454]> Bootstrap09
## 10 <split [1194/436]> Bootstrap10
## # ... with 15 more rows

doParallel::registerDoParallel()

set.seed(2020)
lasso_grid <- tune_grid(
  lasso_wf,
  resamples = review_folds,
  grid = lambda_grid,
  metrics = metric_set(roc_auc, ppv, npv)
)

lasso_grid %>%
  collect_metrics()

## # A tibble: 120 x 7
##     penalty .metric .estimator  mean     n std_err .config              
##       <dbl> <chr>   <chr>      <dbl> <int>   <dbl> <fct>                
##  1 1.00e-10 npv     binary     0.498    25 0.00580 Preprocessor1_Model01
##  2 1.00e-10 ppv     binary     0.616    25 0.00536 Preprocessor1_Model01
##  3 1.00e-10 roc_auc binary     0.578    25 0.00424 Preprocessor1_Model01
##  4 1.80e-10 npv     binary     0.498    25 0.00580 Preprocessor1_Model02
##  5 1.80e-10 ppv     binary     0.616    25 0.00536 Preprocessor1_Model02
##  6 1.80e-10 roc_auc binary     0.578    25 0.00424 Preprocessor1_Model02
##  7 3.26e-10 npv     binary     0.498    25 0.00580 Preprocessor1_Model03
##  8 3.26e-10 ppv     binary     0.616    25 0.00536 Preprocessor1_Model03
##  9 3.26e-10 roc_auc binary     0.578    25 0.00424 Preprocessor1_Model03
## 10 5.88e-10 npv     binary     0.498    25 0.00580 Preprocessor1_Model04
## # ... with 110 more rows
…
